plot1 = plt.subplot2grid((3, 3), (0, 0), colspan=2)
plot2 = plt.subplot2grid((3, 3), (0, 2), rowspan=3, colspan=2)
plot3 = plt.subplot2grid((3, 3), (1, 0), rowspan=2)
Tue Apr 12 2022 16:07:33 GMT+0300 (GMT+03:00)
