int a                initial value 
  int b               initial value 
  int c               initial value 
  int result             initial value undetermined
int foo  
auto bar  foo   the same as int bar  foo
int foo  
decltypefoo bar   the same as int bar
Kaynakça
Mon Dec    GMT GMT